<?xml version="1.0" encoding="UTF-8" standalone="no"?>
<svg
   xmlns:dc="http://purl.org/dc/elements/1.1/"
   xmlns:cc="http://creativecommons.org/ns#"
   xmlns:rdf="http://www.w3.org/1999/02/22-rdf-syntax-ns#"
   xmlns:svg="http://www.w3.org/2000/svg"
   xmlns="http://www.w3.org/2000/svg"
   xmlns:sodipodi="http://sodipodi.sourceforge.net/DTD/sodipodi-0.dtd"
   xmlns:inkscape="http://www.inkscape.org/namespaces/inkscape"
   viewBox="0 0 586.75769 453.46323"
   version="1.1"
   id="svg4"
   sodipodi:docname="chart-line.svg"
   width="586.75769"
   height="453.46323"
   inkscape:version="0.92.4 5da689c313, 2019-01-14">
  <metadata
     id="metadata10">
    <rdf:RDF>
      <cc:Work
         rdf:about="">
        <dc:format>image/svg+xml</dc:format>
        <dc:type
           rdf:resource="http://purl.org/dc/dcmitype/StillImage" />
        <dc:title></dc:title>
      </cc:Work>
    </rdf:RDF>
  </metadata>
  <defs
     id="defs8" />
  <sodipodi:namedview
     pagecolor="#ffffff"
     bordercolor="#666666"
     borderopacity="1"
     objecttolerance="10"
     gridtolerance="10"
     guidetolerance="10"
     inkscape:pageopacity="0"
     inkscape:pageshadow="2"
     inkscape:window-width="1860"
     inkscape:window-height="1053"
     id="namedview6"
     showgrid="false"
     fit-margin-top="0"
     fit-margin-left="0"
     fit-margin-right="0"
     fit-margin-bottom="0"
     inkscape:zoom="0.4609375"
     inkscape:cx="293.37885"
     inkscape:cy="244.53106"
     inkscape:window-x="0"
     inkscape:window-y="0"
     inkscape:window-maximized="1"
     inkscape:current-layer="svg4" />
  <path
     d="M 558.32989,270.4541 141.04993,382.26393 62.368936,88.622476 c -2.28796,-8.53878 -11.057133,-13.60167 -19.595918,-11.31371 l -30.909626,8.28221 C 3.3246078,87.878936 -1.7382772,96.648116 0.54968379,105.1869 L 87.512883,429.73798 c 4.573332,17.06791 22.123927,27.20075 39.191837,22.62741 L 574.8943,332.27336 c 8.53879,-2.28796 13.60167,-11.05714 11.31371,-19.59592 l -8.28221,-30.90963 c -2.28796,-8.53878 -11.05713,-13.60167 -19.59591,-11.31371 z M 452.88037,0.54967225 338.84317,31.105849 c -20.65149,5.533551 -24.30609,33.274687 -5.78794,43.966137 l 39.68173,22.91026 -51.87784,89.869194 -89.85953,-51.88042 c -15.30931,-8.83884 -34.87897,-3.59516 -43.70814,11.71156 l -48.57117,84.12773 c -4.41942,7.65465 -1.79758,17.43948 5.85708,21.8589 l 27.70373,15.99475 c 7.65465,4.41942 17.43948,1.79758 21.8589,-5.85707 l 32.56675,-56.42141 89.85953,51.88042 c 15.30931,8.83884 34.87897,3.59517 43.70814,-11.71156 l 67.88226,-117.57551 39.68173,22.91026 c 18.51814,10.69146 40.71537,-6.34408 35.18182,-26.99557 L 472.46663,11.865969 C 470.18833,3.3245973 461.41916,-1.7382877 452.88037,0.54967225 Z"
     id="path2"
     inkscape:connector-curvature="0"
     style="opacity:0.6;fill:#e9e8e7;fill-opacity:1" />
</svg>
