<?xml version="1.0" encoding="UTF-8" standalone="no"?>
<svg
   xmlns:dc="http://purl.org/dc/elements/1.1/"
   xmlns:cc="http://creativecommons.org/ns#"
   xmlns:rdf="http://www.w3.org/1999/02/22-rdf-syntax-ns#"
   xmlns:svg="http://www.w3.org/2000/svg"
   xmlns="http://www.w3.org/2000/svg"
   xmlns:sodipodi="http://sodipodi.sourceforge.net/DTD/sodipodi-0.dtd"
   xmlns:inkscape="http://www.inkscape.org/namespaces/inkscape"
   viewBox="0 0 553.11292 611.38391"
   version="1.1"
   id="svg4"
   sodipodi:docname="edit.svg"
   width="553.11292"
   height="611.38391"
   inkscape:version="0.92.4 5da689c313, 2019-01-14">
  <metadata
     id="metadata10">
    <rdf:RDF>
      <cc:Work
         rdf:about="">
        <dc:format>image/svg+xml</dc:format>
        <dc:type
           rdf:resource="http://purl.org/dc/dcmitype/StillImage" />
        <dc:title></dc:title>
      </cc:Work>
    </rdf:RDF>
  </metadata>
  <defs
     id="defs8" />
  <sodipodi:namedview
     pagecolor="#ffffff"
     bordercolor="#666666"
     borderopacity="1"
     objecttolerance="10"
     gridtolerance="10"
     guidetolerance="10"
     inkscape:pageopacity="0"
     inkscape:pageshadow="2"
     inkscape:window-width="1860"
     inkscape:window-height="1053"
     id="namedview6"
     showgrid="false"
     fit-margin-top="0"
     fit-margin-left="0"
     fit-margin-right="0"
     fit-margin-bottom="0"
     inkscape:zoom="0.4609375"
     inkscape:cx="317.11552"
     inkscape:cy="311.04129"
     inkscape:window-x="0"
     inkscape:window-y="0"
     inkscape:window-maximized="1"
     inkscape:current-layer="svg4" />
  <path
     d="m 383.07375,103.77167 110.47199,63.78103 c 4.65403,2.68701 6.2587,8.67575 3.5717,13.32978 L 342.68532,448.36676 255.71324,482.3342 c -11.61514,4.56165 -24.47496,-2.86297 -26.33202,-15.2028 L 215.31185,374.82765 369.74397,107.34337 c 2.68701,-4.65403 8.67575,-6.25871 13.32978,-3.5717 z M 533.62678,39.723279 473.85923,5.2164686 C 455.2431,-5.5315544 431.38474,0.86127555 420.54012,19.50328 l -25.03158,43.355968 c -2.68701,4.654031 -1.08233,10.642771 3.5717,13.329777 l 110.47199,63.781035 c 4.65403,2.687 10.64277,1.08232 13.32978,-3.57171 L 547.91359,93.042385 C 558.63573,74.329671 552.2429,50.471302 533.62678,39.723279 Z M 433.17694,362.62419 459.52472,460.95544 150.42845,543.77754 67.606356,234.68127 289.57611,175.20466 c 3.09096,-0.82822 5.65228,-2.86038 7.3045,-5.5807 l 28.28428,-48.9898 c 5.37401,-9.30806 -3.18076,-20.37088 -13.51616,-17.60152 L 35.587124,177.00313 C 9.9900899,183.86183 -5.2127061,210.19385 1.6459989,235.79088 L 92.750302,575.79677 c 6.858705,25.59703 33.190718,40.79983 58.787758,33.94113 l 340.00589,-91.10431 c 25.59703,-6.8587 40.79983,-33.19072 33.94112,-58.78775 l -40.84164,-152.4231 c -2.76937,-10.3354 -16.60155,-12.11604 -22.00144,-2.90458 l -28.28428,48.9898 c -1.52975,2.79103 -2.00899,6.02527 -1.18077,9.11623 z"
     id="path2"
     inkscape:connector-curvature="0"
     style="opacity:0.6;fill:#e9e8e7;fill-opacity:1" />
</svg>
